{
  "name": "Lighthouse.GeoUK",
  "version": "1.0.0-*",
  "authors": [ "Lighthouse Gb" ],
  "owners": [ "Lighthouse Gb" ],
  "requireLicenseAcceptance": false,
  "summary": "A sample dotnet library.",
  "dependencies": {
    "NETStandard.Library": "1.6.0"
  },
  "frameworks": {
    "netstandard1.6": {
      "imports": "dnxcore50"
    }
  }
}